C:\Users\RENT\KarKreUPgda\student\src\main\java\pl\org\pfig\student\Main.java
C:\Users\RENT\KarKreUPgda\student\src\main\java\pl\org\pfig\student\model\Student.java
C:\Users\RENT\KarKreUPgda\student\src\main\java\pl\org\pfig\student\resolver\student\StudentResolver.java
C:\Users\RENT\KarKreUPgda\student\src\main\java\pl\org\pfig\student\connector\DatabaseConnector.java
C:\Users\RENT\KarKreUPgda\student\src\main\java\pl\org\pfig\student\resolver\AbstractResolver.java
C:\Users\RENT\KarKreUPgda\student\src\main\java\pl\org\pfig\student\connector\DatabaseConnectorBuilder.java
